rv32/register_file.vcd
$comment Generated by Amaranth $end
$date 2022-11-16 17:46:16.300579 $end
$timescale 1 ps $end
$scope module bench $end
$scope module top $end
$scope module rf $end
$var wire 1 ! clk $end
$var wire 1 " rst $end
$var wire 32 # data $end
$var wire 5 $ addr $end
$var wire 32 % d $end
$var wire 32 & d$1 $end
$var wire 32 ' d$2 $end
$var wire 32 ( d$3 $end
$var wire 32 ) d$4 $end
$var wire 32 * d$5 $end
$var wire 32 + d$6 $end
$var wire 32 , d$7 $end
$var wire 32 - d$8 $end
$var wire 32 . d$9 $end
$var wire 32 / d$10 $end
$var wire 32 0 d$11 $end
$var wire 32 1 d$12 $end
$var wire 32 2 d$13 $end
$var wire 32 3 d$14 $end
$var wire 32 4 d$15 $end
$var wire 32 5 d$16 $end
$var wire 32 6 d$17 $end
$var wire 32 7 d$18 $end
$var wire 32 8 d$19 $end
$var wire 32 9 d$20 $end
$var wire 32 : d$21 $end
$var wire 32 ; d$22 $end
$var wire 32 < d$23 $end
$var wire 32 = d$24 $end
$var wire 32 > d$25 $end
$var wire 32 ? d$26 $end
$var wire 32 @ d$27 $end
$var wire 32 A d$28 $end
$var wire 32 B d$29 $end
$var wire 32 C d$30 $end
$var wire 32 D d$31 $end
$var wire 1 E write_enable $end
$var wire 32 F load $end
$upscope $end
$upscope $end
$upscope $end
$enddefinitions $end
#0
$dumpvars
0!
0"
b0 #
b0 $
b0 %
b0 &
b0 '
b0 (
b0 )
b0 *
b0 +
b0 ,
b0 -
b0 .
b0 /
b0 0
b0 1
b0 2
b0 3
b0 4
b0 5
b0 6
b0 7
b0 8
b0 9
b0 :
b0 ;
b0 <
b0 =
b0 >
b0 ?
b0 @
b0 A
b0 B
b0 C
b0 D
0E
b0 F
$end
#500000
1!
b11011110101011011011111011101111 F
#1000000
0!
#1500000
b1 $
1!
#2000000
0!
#2500000
b10 $
1!
#3000000
0!
#3500000
b11 $
1!
#4000000
0!
#4500000
b100 $
1!
#5000000
0!
#5500000
b101 $
1!
#6000000
0!
#6500000
b110 $
1!
#7000000
0!
#7500000
b111 $
1!
#8000000
0!
#8500000
b1000 $
1!
#9000000
0!
#9500000
b1001 $
1!
#10000000
0!
#10500000
b1010 $
1!
#11000000
0!
#11500000
b1011 $
1!
#12000000
0!
#12500000
b1100 $
1!
#13000000
0!
#13500000
b1101 $
1!
#14000000
0!
#14500000
b1110 $
1!
#15000000
0!
#15500000
b1111 $
1!
#16000000
0!
#16500000
b10000 $
1!
#17000000
0!
#17500000
b10001 $
1!
#18000000
0!
#18500000
b10010 $
1!
#19000000
0!
#19500000
b10011 $
1!
#20000000
0!
#20500000
b10100 $
1!
#21000000
0!
#21500000
b10101 $
1!
#22000000
0!
#22500000
b10110 $
1!
#23000000
0!
#23500000
b10111 $
1!
#24000000
0!
#24500000
b11000 $
1!
#25000000
0!
#25500000
b11001 $
1!
#26000000
0!
#26500000
b11010 $
1!
#27000000
0!
#27500000
b11011 $
1!
#28000000
0!
#28500000
b11100 $
1!
#29000000
0!
#29500000
b11101 $
1!
#30000000
0!
#30500000
b11110 $
1!
#31000000
0!
#31500000
b11111 $
1!
#32000000
0!
#32500000
b0 $
1E
1!
#33000000
0!
#33500000
b1 $
1!
b11011110101011011011111011101111 %
#34000000
0!
#34500000
b10 $
1!
b11011110101011011011111011101111 &
#35000000
0!
#35500000
b11011110101011011011111011101111 '
b11 $
1!
#36000000
0!
#36500000
b100 $
b11011110101011011011111011101111 (
1!
#37000000
0!
#37500000
b101 $
b11011110101011011011111011101111 )
1!
#38000000
0!
#38500000
b11011110101011011011111011101111 *
b110 $
1!
#39000000
0!
#39500000
b11011110101011011011111011101111 +
b111 $
1!
#40000000
0!
#40500000
b1000 $
1!
b11011110101011011011111011101111 ,
#41000000
0!
#41500000
b1001 $
1!
b11011110101011011011111011101111 -
#42000000
0!
#42500000
b1010 $
1!
b11011110101011011011111011101111 .
#43000000
0!
#43500000
b1011 $
1!
b11011110101011011011111011101111 /
#44000000
0!
#44500000
b1100 $
b11011110101011011011111011101111 0
1!
#45000000
0!
#45500000
b1101 $
b11011110101011011011111011101111 1
1!
#46000000
0!
#46500000
b11011110101011011011111011101111 2
b1110 $
1!
#47000000
0!
#47500000
b11011110101011011011111011101111 3
b1111 $
1!
#48000000
0!
#48500000
b10000 $
1!
b11011110101011011011111011101111 4
#49000000
0!
#49500000
b10001 $
1!
b11011110101011011011111011101111 5
#50000000
0!
#50500000
b10010 $
1!
b11011110101011011011111011101111 6
#51000000
0!
#51500000
b11011110101011011011111011101111 7
b10011 $
1!
#52000000
0!
#52500000
b10100 $
b11011110101011011011111011101111 8
1!
#53000000
0!
#53500000
b10101 $
b11011110101011011011111011101111 9
1!
#54000000
0!
#54500000
b11011110101011011011111011101111 :
b10110 $
1!
#55000000
0!
#55500000
b11011110101011011011111011101111 ;
b10111 $
1!
#56000000
0!
#56500000
b11000 $
1!
b11011110101011011011111011101111 <
#57000000
0!
#57500000
b11001 $
1!
b11011110101011011011111011101111 =
#58000000
0!
#58500000
b11010 $
1!
b11011110101011011011111011101111 >
#59000000
0!
#59500000
b11011 $
1!
b11011110101011011011111011101111 ?
#60000000
0!
#60500000
b11100 $
b11011110101011011011111011101111 @
1!
#61000000
0!
#61500000
b11101 $
b11011110101011011011111011101111 A
1!
#62000000
0!
#62500000
b11011110101011011011111011101111 B
b11110 $
1!
#63000000
0!
#63500000
b11011110101011011011111011101111 C
b11111 $
1!
#64000000
0!
#64500000
b11011110101011011011111011101111 #
0E
1!
b10111110111011111101111010101101 F
b0 $
b11011110101011011011111011101111 D
#65000000
0!
#65500000
b1 $
1!
#66000000
0!
#66500000
b10 $
1!
#67000000
0!
#67500000
b11 $
1!
#68000000
0!
#68500000
b100 $
1!
#69000000
0!
#69500000
b101 $
1!
#70000000
0!
#70500000
b110 $
1!
#71000000
0!
#71500000
b111 $
1!
#72000000
0!
#72500000
b1000 $
1!
#73000000
0!
#73500000
b1001 $
1!
#74000000
0!
#74500000
b1010 $
1!
#75000000
0!
#75500000
b1011 $
1!
#76000000
0!
#76500000
b1100 $
1!
#77000000
0!
#77500000
b1101 $
1!
#78000000
0!
#78500000
b1110 $
1!
#79000000
0!
#79500000
b1111 $
1!
#80000000
0!
#80500000
b10000 $
1!
#81000000
0!
#81500000
b10001 $
1!
#82000000
0!
#82500000
b10010 $
1!
#83000000
0!
#83500000
b10011 $
1!
#84000000
0!
#84500000
b10100 $
1!
#85000000
0!
#85500000
b10101 $
1!
#86000000
0!
#86500000
b10110 $
1!
#87000000
0!
#87500000
b10111 $
1!
#88000000
0!
#88500000
b11000 $
1!
#89000000
0!
#89500000
b11001 $
1!
#90000000
0!
#90500000
b11010 $
1!
#91000000
0!
#91500000
b11011 $
1!
#92000000
0!
#92500000
b11100 $
1!
#93000000
0!
#93500000
b11101 $
1!
#94000000
0!
#94500000
b11110 $
1!
#95000000
0!
#95500000
b11111 $
1!
